-- 로직

전일 동시간 대비 transaction x배 이상이고
강도변화량/시간변화량 이 x이상

- 대주주 동향 살피기
- 과거 매집수량 최대치 파악

일자 - 현재가 - 누적합계 - 최고저점, 매집수량 매집고점, 분산비율
분산비율 = 매집수량 / 매집고점

세력합 : 외국인 + 기관계 ( 증권, 보험, 투신, 종금, 은행, 기금, 사모펀드) + 기타 법인 + 국가
 개인들의 물량을 계산해야한다(세력 물량이 0% 를 지나 15%..이상 매수하면 이시점에 매수
 100%를 지나 고점대비 85%보유.. 즉 15%이상 분산이 일어나면 이시점에 매도..)
 
 
 - 30 분 차트 배우기 - 활용하기 (단타, 스윙)
- 일목균형표?
- 거래량 막대지표 대신 equivolume 차트 사용???


- 유통 주식수를 어떻게 파악?

- 세력의 평균단가 = 거래 금액 / 거래량?

- 환율 동향 , 흐름 살피기

